        {
            "name": "libretro-desmume2015",
            "skip-arches": [
                "aarch64",
                "arm"
            ],
            "no-autogen": true,
            "no-make-install": true,
            "subdir": "desmume",
            "post-install": [
                "mkdir -p /app/lib/libretro/",
                "install -m644 -p desmume2015_libretro.so /app/lib/libretro/",
                "install -m644 -p ../desmume2015.libretro /app/lib/libretro/"
            ],
            "sources": [
                {
                    "type": "git",
                    "url": "https://github.com/libretro/desmume2015"
                },
                {
                    "type": "file",
                    "path": "desmume2015.libretro",
                    "dest-filename": "desmume2015.libretro"
                }
            ]
        }
