        {
            "name": "libretro-mednafen_ngp",
            "no-autogen": true,
            "no-make-install": true,
            "post-install": [
                "mkdir -p /app/lib/libretro/",
                "install -m644 -p mednafen_ngp_libretro.so /app/lib/libretro/",
                "install -m644 -p mednafen_ngp.libretro /app/lib/libretro/"
            ],
            "sources": [
                {
                    "type": "git",
                    "url": "https://github.com/libretro/beetle-ngp-libretro"
                },
                {
                    "type": "file",
                    "path": "mednafen_ngp.libretro"
                }
            ]
        }
